@startuml IdCard

package com.jumble_x_sale.models <<Folder>> {

  class IdCard {
    ' .. Fields ..
    ' {field} -String idString
    .. Getters ..
    {method} +String getIdString()
    {method} +OffsetDateTime getBirthday()
    {method} +boolean isValid()
    {method} +boolean isExpired()
    ' .. Setters ..
    ' -- Methods --
  }

}

@enduml
