@startuml UserRepository

package com.jumble_x_sale.models <<Folder>> {

  interface UserRepository {
    ' .. Getters ..
    ' .. Setters ..
    -- Methods --
    ' {method} +default User create(...)
    {method} +default User create(UserType userType, String firstName, String lastName, String email, IdCard idCard, boolean active)
    {method} +User byName(String firstName, String lastName)
    {method} +User byEmail(String email)
  }

}

@enduml
