@startuml SecretSantaOffers

package com.jumble_x_sale.server <<Folder>> {

  class CompletedSaleResource {
    ' .. Fields ..
    ' .. Getters ..
    ' .. Setters ..
    -- Methods --
    ' {method} +Iterable<CompletedSale> findByBuyer(UUID buyerId)
    ' {method} +Iterable<CompletedSale> findByCreator(UUID creatorId)
    {method} +Iterable<CompletedSale> findByBuyer(...)
    {method} +Iterable<CompletedSale> findByCreator(...)
  }

}

@enduml
